APB/work/dump.vcd
$date
    Jul 10, 2025  08:48:02
$end
$version
    TOOL:	xmsim	23.09-s001
$end
$timescale
    1 ns
$end

$scope module tb $end

$scope module vif $end
$var reg       1 !    pclk $end
$var reg       1 "    prst $end
$var reg       1 #    pwrite $end
$var reg       1 $    psel $end
$var reg       1 %    penable $end
$var reg      33 &    paddr [32:0] $end
$var reg      33 '    pwdata [32:0] $end
$var reg      33 (    prdata [32:0] $end
$var reg       1 )    pready $end
$var reg       1 *    pslverr $end
$upscope $end


$scope module apb_slave $end
$var reg      32 +    mem[0] [31:0] $end
$var reg      32 ,    mem[1] [31:0] $end
$var reg      32 -    mem[2] [31:0] $end
$var reg      32 .    mem[3] [31:0] $end
$var reg      32 /    mem[4] [31:0] $end
$var reg      32 0    mem[5] [31:0] $end
$var reg      32 1    mem[6] [31:0] $end
$var reg      32 2    mem[7] [31:0] $end
$var reg      32 3    mem[8] [31:0] $end
$var reg      32 4    mem[9] [31:0] $end
$var reg      32 5    mem[10] [31:0] $end
$var reg      32 6    mem[11] [31:0] $end
$var reg      32 7    mem[12] [31:0] $end
$var reg      32 8    mem[13] [31:0] $end
$var reg      32 9    mem[14] [31:0] $end
$var reg      32 :    mem[15] [31:0] $end
$var reg      32 ;    mem[16] [31:0] $end
$var reg      32 <    mem[17] [31:0] $end
$var reg      32 =    mem[18] [31:0] $end
$var reg      32 >    mem[19] [31:0] $end
$var reg      32 ?    mem[20] [31:0] $end
$var reg      32 @    mem[21] [31:0] $end
$var reg      32 A    mem[22] [31:0] $end
$var reg      32 B    mem[23] [31:0] $end
$var reg      32 C    mem[24] [31:0] $end
$var reg      32 D    mem[25] [31:0] $end
$var reg      32 E    mem[26] [31:0] $end
$var reg      32 F    mem[27] [31:0] $end
$var reg      32 G    mem[28] [31:0] $end
$var reg      32 H    mem[29] [31:0] $end
$var reg      32 I    mem[30] [31:0] $end
$var reg      32 J    mem[31] [31:0] $end
$var reg      32 K    mem[32] [31:0] $end
$var reg      32 L    mem[33] [31:0] $end
$var reg      32 M    mem[34] [31:0] $end
$var reg      32 N    mem[35] [31:0] $end
$var reg      32 O    mem[36] [31:0] $end
$var reg      32 P    mem[37] [31:0] $end
$var reg      32 Q    mem[38] [31:0] $end
$var reg      32 R    mem[39] [31:0] $end
$var reg      32 S    mem[40] [31:0] $end
$var reg      32 T    mem[41] [31:0] $end
$var reg      32 U    mem[42] [31:0] $end
$var reg      32 V    mem[43] [31:0] $end
$var reg      32 W    mem[44] [31:0] $end
$var reg      32 X    mem[45] [31:0] $end
$var reg      32 Y    mem[46] [31:0] $end
$var reg      32 Z    mem[47] [31:0] $end
$var reg      32 [    mem[48] [31:0] $end
$var reg      32 \    mem[49] [31:0] $end
$var reg      32 ]    mem[50] [31:0] $end
$var reg      32 ^    mem[51] [31:0] $end
$var reg      32 _    mem[52] [31:0] $end
$var reg      32 `    mem[53] [31:0] $end
$var reg      32 a    mem[54] [31:0] $end
$var reg      32 b    mem[55] [31:0] $end
$var reg      32 c    mem[56] [31:0] $end
$var reg      32 d    mem[57] [31:0] $end
$var reg      32 e    mem[58] [31:0] $end
$var reg      32 f    mem[59] [31:0] $end
$var reg      32 g    mem[60] [31:0] $end
$var reg      32 h    mem[61] [31:0] $end
$var reg      32 i    mem[62] [31:0] $end
$var reg      32 j    mem[63] [31:0] $end
$var reg      32 k    mem[64] [31:0] $end
$var reg      32 l    mem[65] [31:0] $end
$var reg      32 m    mem[66] [31:0] $end
$var reg      32 n    mem[67] [31:0] $end
$var reg      32 o    mem[68] [31:0] $end
$var reg      32 p    mem[69] [31:0] $end
$var reg      32 q    mem[70] [31:0] $end
$var reg      32 r    mem[71] [31:0] $end
$var reg      32 s    mem[72] [31:0] $end
$var reg      32 t    mem[73] [31:0] $end
$var reg      32 u    mem[74] [31:0] $end
$var reg      32 v    mem[75] [31:0] $end
$var reg      32 w    mem[76] [31:0] $end
$var reg      32 x    mem[77] [31:0] $end
$var reg      32 y    mem[78] [31:0] $end
$var reg      32 z    mem[79] [31:0] $end
$var reg      32 {    mem[80] [31:0] $end
$var reg      32 |    mem[81] [31:0] $end
$var reg      32 }    mem[82] [31:0] $end
$var reg      32 ~    mem[83] [31:0] $end
$var reg      32 !!   mem[84] [31:0] $end
$var reg      32 "!   mem[85] [31:0] $end
$var reg      32 #!   mem[86] [31:0] $end
$var reg      32 $!   mem[87] [31:0] $end
$var reg      32 %!   mem[88] [31:0] $end
$var reg      32 &!   mem[89] [31:0] $end
$var reg      32 '!   mem[90] [31:0] $end
$var reg      32 (!   mem[91] [31:0] $end
$var reg      32 )!   mem[92] [31:0] $end
$var reg      32 *!   mem[93] [31:0] $end
$var reg      32 +!   mem[94] [31:0] $end
$var reg      32 ,!   mem[95] [31:0] $end
$var reg      32 -!   mem[96] [31:0] $end
$var reg      32 .!   mem[97] [31:0] $end
$var reg      32 /!   mem[98] [31:0] $end
$var reg      32 0!   mem[99] [31:0] $end
$var reg      32 1!   mem[100] [31:0] $end
$var reg      32 2!   mem[101] [31:0] $end
$var reg      32 3!   mem[102] [31:0] $end
$var reg      32 4!   mem[103] [31:0] $end
$var reg      32 5!   mem[104] [31:0] $end
$var reg      32 6!   mem[105] [31:0] $end
$var reg      32 7!   mem[106] [31:0] $end
$var reg      32 8!   mem[107] [31:0] $end
$var reg      32 9!   mem[108] [31:0] $end
$var reg      32 :!   mem[109] [31:0] $end
$var reg      32 ;!   mem[110] [31:0] $end
$var reg      32 <!   mem[111] [31:0] $end
$var reg      32 =!   mem[112] [31:0] $end
$var reg      32 >!   mem[113] [31:0] $end
$var reg      32 ?!   mem[114] [31:0] $end
$var reg      32 @!   mem[115] [31:0] $end
$var reg      32 A!   mem[116] [31:0] $end
$var reg      32 B!   mem[117] [31:0] $end
$var reg      32 C!   mem[118] [31:0] $end
$var reg      32 D!   mem[119] [31:0] $end
$var reg      32 E!   mem[120] [31:0] $end
$var reg      32 F!   mem[121] [31:0] $end
$var reg      32 G!   mem[122] [31:0] $end
$var reg      32 H!   mem[123] [31:0] $end
$var reg      32 I!   mem[124] [31:0] $end
$var reg      32 J!   mem[125] [31:0] $end
$var reg      32 K!   mem[126] [31:0] $end
$var reg      32 L!   mem[127] [31:0] $end
$upscope $end

$upscope $end


$scope module uvm_pkg $end
$var parameter 32 M!   UVM_HDL_MAX_WIDTH $end
$var parameter 328 N!   uvm_mgc_copyright $end
$var parameter 336 O!   uvm_cdn_copyright $end
$var parameter 224 P!   uvm_snps_copyright $end
$var parameter 328 Q!   uvm_cy_copyright $end
$var parameter 256 R!   uvm_nv_copyright $end
$var parameter 200 S!   uvm_revision $end
$var reg       1 T!   uvm_start_uvm_declarations $end
$var parameter 32 U!   UVM_STREAMBITS $end
$var parameter 32 V!   UVM_RADIX $end
$var parameter 32 W!   UVM_MACRO_NUMFLAGS $end
$var parameter 32 X!   UVM_DEFAULT $end
$var parameter 32 Y!   UVM_ALL_ON $end
$var parameter 32 Z!   UVM_FLAGS_ON $end
$var parameter 32 [!   UVM_FLAGS_OFF $end
$var parameter 32 \!   UVM_COPY $end
$var parameter 32 ]!   UVM_NOCOPY $end
$var parameter 32 ^!   UVM_COMPARE $end
$var parameter 32 _!   UVM_NOCOMPARE $end
$var parameter 32 `!   UVM_PRINT $end
$var parameter 32 a!   UVM_NOPRINT $end
$var parameter 32 b!   UVM_RECORD $end
$var parameter 32 c!   UVM_NORECORD $end
$var parameter 32 d!   UVM_PACK $end
$var parameter 32 e!   UVM_NOPACK $end
$var parameter 32 f!   UVM_PHYSICAL $end
$var parameter 32 g!   UVM_ABSTRACT $end
$var parameter 32 h!   UVM_READONLY $end
$var parameter 32 i!   UVM_NODEFPRINT $end
$var parameter 32 j!   UVM_MACRO_EXTRAS $end
$var parameter 32 k!   UVM_FLAGS $end
$var parameter 32 l!   UVM_UNPACK $end
$var parameter 32 m!   UVM_CHECK_FIELDS $end
$var parameter 32 n!   UVM_END_DATA_EXTRA $end
$var parameter 32 o!   UVM_START_FUNCS $end
$var parameter 32 p!   UVM_SET $end
$var parameter 32 q!   UVM_SETINT $end
$var parameter 32 r!   UVM_SETOBJ $end
$var parameter 32 s!   UVM_SETSTR $end
$var parameter 32 t!   UVM_END_FUNCS $end
$var integer  32 u!   uvm_global_random_seed $end
$var parameter 32 v!   UVM_STR_CRC_POLYNOMIAL $end
$var parameter 32 w!   UVM_STDOUT $end
$var parameter 32 x!   UVM_LINE_WIDTH $end
$var parameter 32 y!   UVM_NUM_LINES $end
$var parameter 32 z!   UVM_SMALL_STRING $end
$var parameter 32 {!   UVM_LARGE_STRING $end
$var integer  32 |!   UVM_UNBOUNDED_CONNECTIONS $end

$scope function uvm_hdl_check_path $end
$var integer  32 }!   uvm_hdl_check_path $end
$upscope $end


$scope function uvm_hdl_deposit $end
$var integer  32 ~!   uvm_hdl_deposit $end
$var reg      1024 !"   value [1023:0] $end
$upscope $end


$scope function uvm_hdl_force $end
$var integer  32 ""   uvm_hdl_force $end
$var reg      1024 #"   value [1023:0] $end
$upscope $end


$scope task uvm_hdl_force_time $end
$var reg      1024 $"   value [1023:0] $end
$var time     64 %"   force_time $end
$upscope $end


$scope function uvm_hdl_release_and_read $end
$var integer  32 &"   uvm_hdl_release_and_read $end
$var reg      1024 '"   value [1023:0] $end
$upscope $end


$scope function uvm_hdl_release $end
$var integer  32 ("   uvm_hdl_release $end
$upscope $end


$scope function uvm_hdl_read $end
$var integer  32 )"   uvm_hdl_read $end
$var reg      1024 *"   value [1023:0] $end
$upscope $end


$scope function uvm_dpi_get_next_arg_c $end
$var integer  32 +"   init $end
$upscope $end


$scope function uvm_dpi_get_next_arg $end
$var integer  32 ,"   init $end
$upscope $end


$scope function uvm_dpi_regexec $end
$var integer  32 -"   uvm_dpi_regexec $end
$upscope $end


$scope function uvm_re_match $end
$var integer  32 ."   uvm_re_match $end
$upscope $end


$scope function uvm_regcomp $end
$var reg      64 /"   uvm_regcomp [63:0] $end
$upscope $end


$scope function uvm_regexec $end
$var integer  32 0"   uvm_regexec $end
$var reg      64 1"   re [63:0] $end
$var integer  32 2"   nmatch $end
$var reg      64 3"   ptr [63:0] $end
$var integer  32 4"   eflags $end
$upscope $end


$scope task uvm_regfree $end
$var reg      64 5"   re [63:0] $end
$upscope $end


$scope function uvm_radix_to_string $end
$var reg      32 6"   radix [31:0] $end
$upscope $end


$scope function uvm_instance_scope $end
$var reg       8 7"   c [7:0] $end
$var integer  32 8"   pos $end
$upscope $end


$scope function uvm_oneway_hash $end
$var integer  32 9"   uvm_oneway_hash $end
$var integer  32 :"   seed $end
$var reg       1 ;"   msb $end
$var reg       8 <"   current_byte [7:0] $end
$var reg      32 ="   crc1 [31:0] $end
$upscope $end


$scope function uvm_create_random_seed $end
$var integer  32 >"   uvm_create_random_seed $end
$upscope $end


$scope function uvm_leaf_scope $end
$var reg       8 ?"   scope_separator [7:0] $end
$var reg       8 @"   bracket_match [7:0] $end
$var integer  32 A"   pos $end
$var integer  32 B"   bmatches $end
$upscope $end


$scope function uvm_bitstream_to_string $end
$var reg      4096 C"   value [4095:0] $end
$var integer  32 D"   size $end
$var reg      32 E"   radix [31:0] $end

$scope begin unmblk1 $end
$var reg      4096 F"   _t [4095:0] $end
$upscope $end

$upscope $end


$scope function uvm_integral_to_string $end
$var reg      64 G"   value [63:0] $end
$var integer  32 H"   size $end
$var reg      32 I"   radix [31:0] $end

$scope begin unmblk1 $end
$var reg      64 J"   _t [63:0] $end
$upscope $end

$upscope $end


$scope function uvm_vector_to_string $end
$var reg      4096 K"   value [4095:0] $end
$var integer  32 L"   size $end
$var reg      32 M"   radix [31:0] $end
$upscope $end


$scope function uvm_get_array_index_int $end
$var integer  32 N"   uvm_get_array_index_int $end
$var reg       1 O"   is_wildcard $end
$var integer  32 P"   i $end
$upscope $end


$scope function uvm_get_array_index_string $end
$var reg       1 Q"   is_wildcard $end
$var integer  32 R"   i $end
$upscope $end


$scope function uvm_is_array $end
$var reg       1 S"   uvm_is_array $end
$upscope $end


$scope task set_global_timeout $end
$var time     64 T"   timeout $end
$var reg       1 U"   overridable $end
$upscope $end


$scope task set_global_stop_timeout $end
$var time     64 V"   timeout $end
$upscope $end


$scope function uvm_report_enabled $end
$var integer  32 W"   uvm_report_enabled $end
$var integer  32 X"   verbosity $end
$var reg       2 Y"   severity [1:0] $end
$upscope $end


$scope task uvm_report $end
$var reg       2 Z"   severity [1:0] $end
$var integer  32 ["   verbosity $end
$var integer  32 \"   line $end
$var reg       1 ]"   report_enabled_checked $end
$upscope $end


$scope task m__uvm_report_dpi $end
$var integer  32 ^"   severity $end
$var integer  32 _"   verbosity $end
$var integer  32 `"   line $end
$upscope $end


$scope task uvm_report_info $end
$var integer  32 a"   verbosity $end
$var integer  32 b"   line $end
$var reg       1 c"   report_enabled_checked $end
$upscope $end


$scope task uvm_report_warning $end
$var integer  32 d"   verbosity $end
$var integer  32 e"   line $end
$var reg       1 f"   report_enabled_checked $end
$upscope $end


$scope task uvm_report_error $end
$var integer  32 g"   verbosity $end
$var integer  32 h"   line $end
$var reg       1 i"   report_enabled_checked $end
$upscope $end


$scope task uvm_report_fatal $end
$var integer  32 j"   verbosity $end
$var integer  32 k"   line $end
$var reg       1 l"   report_enabled_checked $end
$upscope $end


$scope function uvm_string_to_severity $end
$var reg       1 m"   uvm_string_to_severity $end
$var reg       2 n"   sev [1:0] $end
$upscope $end


$scope task set_config_int $end
$var reg      4096 o"   value [4095:0] $end
$upscope $end


$scope task set_config_object $end
$var reg       1 p"   clone $end
$upscope $end


$scope function uvm_is_match $end
$var reg       1 q"   uvm_is_match $end
$upscope $end


$scope task uvm_wait_for_nba_region $end
$var integer  32 r"   nba $end
$var integer  32 s"   next_nba $end
$upscope $end

$upscope $end

$enddefinitions $end
$dumpvars
b11100000111111111 {!
b1110111111 z!
b1111000 y!
b1111000 x!
b1 w!
b100110000010001110110110110 v!
b100000000000001000 t!
b100000000000001000 s!
b100000000000000111 r!
b100000000000000110 q!
b100000000000000110 p!
b100000000000000101 o!
b100000000000000100 n!
b100000000000000011 m!
b100000000000000010 l!
b100000000000000001 k!
b100000000000000000 j!
b10000000000000000 i!
b1000000000000000 h!
b100000000000000 g!
b10000000000000 f!
b1000000000 e!
b100000000 d!
b10000000 c!
b1000000 b!
b100000 a!
b10000 `!
b1000 _!
b100 ^!
b10 ]!
b1 \!
b0 [!
b101010101 Z!
b101010101 Y!
b10101010101 X!
b10001 W!
b1111000000000000000000000000 V!
b1000000000000 U!
b1101100000000000000000000000000000z110000000000000000000000000001101000000000000000000000000000000z110000000000000000000000000001100100000000000000000000000000000z1100000000000000000000000000010001 S!
b0z110000000000000000000000000001101000000000000000000000000000000z110000000000000000000000000001100100000000000000000000000000000z110000000000000000000000000001000100000000000000000000000000000z1100000000000000000000000000010000 R!
b1101100000000000000000000000000000z110000000000000000000000000001101000000000000000000000000000000z110000000000000000000000000001100100000000000000000000000000000z110000000000000000000000000001000100000000000000000000000000000z110000000000000000000000000001000000000000000000000000000000000z1100000000000000000000000000001111 Q!
b1000100000000000000000000000000000z110000000000000000000000000001000000000000000000000000000000000z110000000000000000000000000000111100000000000000000000000000000z1100000000000000000000000000001110 P!
b1100100000000000000000000000000000z110000000000000000000000000001000100000000000000000000000000000z110000000000000000000000000001000000000000000000000000000000000z110000000000000000000000000000111100000000000000000000000000000z110000000000000000000000000000111000000000000000000000000000000z1100000000000000000000000000001101 O!
b1000100000000000000000000000000000z110000000000000000000000000001000000000000000000000000000000000z110000000000000000000000000000111100000000000000000000000000000z110000000000000000000000000000111000000000000000000000000000000z110000000000000000000000000000110100000000000000000000000000000z1100000000000000000000000000001100 N!
b10000000000 M!
0!
0"
0#
0$
0%
b0 &
b0 '
bx (
0)
0*
b0 +
b0 ,
b0 -
b0 .
b0 /
b0 0
b0 1
b0 2
b0 3
b0 4
b0 5
b0 6
b0 7
b0 8
b0 9
b0 :
b0 ;
b0 <
b0 =
b0 >
b0 ?
b0 @
b0 A
b0 B
b0 C
b0 D
b0 E
b0 F
b0 G
b0 H
b0 I
b0 J
b0 K
b0 L
b0 M
b0 N
b0 O
b0 P
b0 Q
b0 R
b0 S
b0 T
b0 U
b0 V
b0 W
b0 X
b0 Y
b0 Z
b0 [
b0 \
b0 ]
b0 ^
b0 _
b0 `
b0 a
b0 b
b0 c
b0 d
b0 e
b0 f
b0 g
b0 h
b0 i
b0 j
b0 k
b0 l
b0 m
b0 n
b0 o
b0 p
b0 q
b0 r
b0 s
b0 t
b0 u
b0 v
b0 w
b0 x
b0 y
b0 z
b0 {
b0 |
b0 }
b0 ~
b0 !!
b0 "!
b0 #!
b0 $!
b0 %!
b0 &!
b0 '!
b0 (!
b0 )!
b0 *!
b0 +!
b0 ,!
b0 -!
b0 .!
b0 /!
b0 0!
b0 1!
b0 2!
b0 3!
b0 4!
b0 5!
b0 6!
b0 7!
b0 8!
b0 9!
b0 :!
b0 ;!
b0 <!
b0 =!
b0 >!
b0 ?!
b0 @!
b0 A!
b0 B!
b0 C!
b0 D!
b0 E!
b0 F!
b0 G!
b0 H!
b0 I!
b0 J!
b0 K!
b0 L!
1T!
b101011011100011001010010100011 u!
b11111111111111111111111111111111 |!
b0 }!
b0 ~!
bx !"
b0 ""
bx #"
bx $"
bx %"
b0 &"
bx '"
b0 ("
b0 )"
bx *"
b0 +"
b0 ,"
b0 -"
b0 ."
b0 /"
b0 0"
b0 1"
b0 2"
b0 3"
b0 4"
b0 5"
b0 6"
b111010 7"
b1000 8"
b10101011001000111000001110110110 9"
b101011011100011001010010100011 :"
0;"
b1110001 <"
b11101100000100000100111010000000 ="
b11111011010011111000001110000111 >"
b101110 ?"
b0 @"
b10010 A"
b11111111111111111111111111111111 B"
bx C"
b0 D"
b0 E"
bx F"
b1 G"
b100000 H"
b10000000000000000000000000 I"
bx J"
bx K"
b0 L"
b0 M"
b0 N"
0O"
b0 P"
0Q"
b0 R"
0S"
bx T"
0U"
bx V"
b0 W"
b111110100 X"
b0 Y"
b0 Z"
b0 ["
b0 \"
0]"
b0 ^"
b0 _"
b0 `"
b0 a"
b0 b"
0c"
b0 d"
b0 e"
0f"
b0 g"
b0 h"
0i"
b0 j"
b0 k"
0l"
0m"
b0 n"
bx o"
0p"
0q"
b100011 r"
b100011 s"
$end
#5
1!
#10
0!
#15
1!
#20
0!
#25
1!
#30
0!
#35
1!
#40
0!
#45
1!
b100100 s"
b100100 r"
1$
1#
1"
b11001 &
b11111011000010001000001100101111 '
#50
0!
#55
1!
1%
#60
0!
1)
b11111011000010001000001100101111 D
#65
1!
b100101 s"
b1000010001010111111001111110000 >"
0%
b100101 r"
b0 &
b10000001011101101010101010100001 '
#70
0!
0)
#75
1!
1%
#80
0!
1)
b10000001011101101010101010100001 +
#85
1!
b100110 s"
b10101011001000111000001110110111 >"
0%
b100110 r"
b1100110100000011111110110101011 &
b101001011101101101010000111001 '
#90
0!
0)
#95
1!
1%
#100
0!
1*
1)
#105
1!
b100111 s"
b1000010001010111111001111110010 >"
0%
b100111 r"
b1 &
b1011110010000001100100010111011 '
#110
0!
0)
0*
#115
1!
1%
#120
0!
1)
b1011110010000001100100010111011 ,
#125
1!
b101000 s"
b10101011001000111000001110111001 >"
0%
b101000 r"
b1111111 &
b10011010001001100000001100000101 '
#130
0!
0)
#135
1!
1%
#140
0!
1)
b10011010001001100000001100000101 L!
#145
1!
b101001 s"
b1000010001010111111001111110101 >"
0%
b101001 r"
b10 &
b10011001100101110110111100011011 '
#150
0!
0)
#155
1!
1%
#160
0!
1)
b10011001100101110110111100011011 -
#165
1!
b101010 s"
b10101011001000111000001110111100 >"
0%
b101010 r"
b1101001 &
b11011011010100110110100111101111 '
#170
0!
0)
#175
1!
1%
#180
0!
1)
b11011011010100110110100111101111 6!
#185
1!
b101011 s"
b1000010001010111111001111111001 >"
0%
b101011 r"
b11 &
b10000001111100101100001101100111 '
#190
0!
0)
#195
1!
1%
#200
0!
1)
b10000001111100101100001101100111 .
#205
1!
b101100 s"
b10101011001000111000001111000000 >"
0%
b101100 r"
b1100 &
b110001011110111001110110111011 '
#210
0!
0)
#215
1!
1%
#220
0!
1)
b110001011110111001110110111011 7
#225
1!
b101101 s"
b1000010001010111111001111111110 >"
0%
b101101 r"
b100 &
b1001001010000010001111000011110 '
#230
0!
0)
#235
1!
1%
#240
0!
1)
b1001001010000010001111000011110 /
#245
1!
b101110 s"
b10101011001000111000001111000101 >"
0%
b101110 r"
b1001100 &
b1000001001001001000101010011111 '
#250
0!
0)
#255
1!
1%
#260
0!
1)
b1000001001001001000101010011111 w
#265
1!
b101111 s"
b1000010001010111111010000000100 >"
0%
b101111 r"
b101 &
b111110000011000011001000000110 '
#270
0!
0)
#275
1!
1%
#280
0!
1)
b111110000011000011001000000110 0
#285
1!
b110000 s"
b10101011001000111000001111001011 >"
0%
b110000 r"
b100111110100101001010001101 &
b11110001001001111011101110100001 '
#290
0!
0)
#295
1!
1%
#300
0!
1*
1)
#305
1!
b110001 s"
b1000010001010111111010000001011 >"
0%
b110001 r"
b110 &
b11100010100101111100001010010 '
#310
0!
0)
0*
#315
1!
1%
#320
0!
1)
b11100010100101111100001010010 1
#325
1!
b110010 s"
b10101011001000111000001111010010 >"
0%
b110010 r"
b10100101011111001010101101111100 &
b1001111101011000110111010111111 '
#330
0!
0)
#335
1!
1%
#340
0!
1*
1)
#345
1!
b110011 s"
b1000010001010111111010000010011 >"
0%
b110011 r"
b111 &
b1010010000111011000110110010101 '
#350
0!
0)
0*
#355
1!
1%
#360
0!
1)
b1010010000111011000110110010101 2
#365
1!
b110100 s"
b10101011001000111000001111011010 >"
0%
b110100 r"
b101111 &
b10101001001011111011011000100101 '
#370
0!
0)
#375
1!
1%
#380
0!
1)
b10101001001011111011011000100101 Z
#385
1!
b110101 s"
b1000010001010111111010000011100 >"
0%
b110101 r"
b1000 &
b11010011111001101110101101101001 '
#390
0!
0)
#395
1!
1%
#400
0!
1)
b11010011111001101110101101101001 3
#405
1!
b110110 s"
b10101011001000111000001111100011 >"
0%
b110110 r"
b1100 &
b11000000101100000001110010111010 '
#410
0!
0)
#415
1!
1%
#420
0!
1)
b11000000101100000001110010111010 7
#425
1!
b110111 s"
b1000010001010111111010000100110 >"
0%
b110111 r"
b1001 &
b11011100101011010010101011011101 '
#430
0!
0)
#435
1!
1%
#440
0!
1)
b11011100101011010010101011011101 4
#445
1!
b111000 s"
b10101011001000111000001111101101 >"
0%
b111000 r"
b101 &
b1100010111110010001011110000001 '
#450
0!
0)
#455
1!
1%
#460
0!
1)
b1100010111110010001011110000001 0
#465
1!
b111001 s"
b1000010001010111111010000110001 >"
0%
b111001 r"
b1010 &
b10110101110101101011101110100001 '
#470
0!
0)
#475
1!
1%
#480
0!
1)
b10110101110101101011101110100001 5
#485
1!
b111010 s"
b10101011001000111000001111111000 >"
0%
b111010 r"
b1001010 &
b1101110001101000000111100010000 '
#490
0!
0)
#495
1!
1%
#500
0!
1)
b1101110001101000000111100010000 u
#505
1!
b111011 s"
b1000010001010111111010000111101 >"
0%
b111011 r"
b1011 &
b1100010110000111011101111110010 '
#510
0!
0)
#515
1!
1%
#520
0!
1)
b1100010110000111011101111110010 6
#525
1!
b111100 s"
b10101011001000111000010000000100 >"
0%
b111100 r"
b111 &
b10000010101010111001011101101010 '
#530
0!
0)
#535
1!
1%
#540
0!
1)
b10000010101010111001011101101010 2
#545
1!
b111101 s"
b1000010001010111111010001001010 >"
0%
b111101 r"
b1100 &
b11001100001101010101110101000101 '
#550
0!
0)
#555
1!
1%
#560
0!
1)
b11001100001101010101110101000101 7
#565
1!
b111110 s"
b10101011001000111000010000010001 >"
0%
b111110 r"
b1110011 &
b10000011110101011110101010101011 '
#570
0!
0)
#575
1!
1%
#580
0!
1)
b10000011110101011110101010101011 @!
#585
1!
b111111 s"
b1000010001010111111010001011000 >"
0%
b111111 r"
b1101 &
b11000111011000010000000110110100 '
#590
0!
0)
#595
1!
1%
#600
0!
1)
b11000111011000010000000110110100 8
#605
1!
b1000000 s"
b10101011001000111000010000011111 >"
0%
b1000000 r"
b1001010 &
b1000111010101011100001100111101 '
#610
0!
0)
#615
1!
1%
#620
0!
1)
b1000111010101011100001100111101 u
#625
1!
b1000001 s"
b1000010001010111111010001100111 >"
0%
b1000001 r"
b1110 &
b10100110100110111111000101011 '
#630
0!
0)
#635
1!
1%
#640
0!
1)
b10100110100110111111000101011 9
#645
1!
b1000010 s"
b10101011001000111000010000101110 >"
0%
b1000010 r"
b1 &
b11010100000011110011010101110000 '
#650
0!
0)
#655
1!
1%
#660
0!
1)
b11010100000011110011010101110000 ,
#665
1!
b1000011 s"
b1000010001010111111010001110111 >"
0%
b1000011 r"
b1111 &
b110011000001001010110101010000 '
#670
0!
0)
#675
1!
1%
#680
0!
1)
b110011000001001010110101010000 :
#685
1!
b1000100 s"
b10101011001000111000010000111110 >"
0%
b1000100 r"
b1101 &
b100010000101101111100100111111 '
#690
0!
0)
#695
1!
1%
#700
0!
1)
b100010000101101111100100111111 8
#705
1!
b1000101 s"
b1000010001010111111010010001000 >"
0%
b1000101 r"
b10000 &
b10100000101110110011111100110101 '
#710
0!
0)
#715
1!
1%
#720
0!
1)
b10100000101110110011111100110101 ;
#725
1!
b1000110 s"
b10101011001000111000010001001111 >"
0%
b1000110 r"
b1001111 &
b10010001110001100100100000100110 '
#730
0!
0)
#735
1!
1%
#740
0!
1)
b10010001110001100100100000100110 z
#745
1!
b1000111 s"
b1000010001010111111010010011010 >"
0%
b1000111 r"
b10001 &
b11101011001001110111000110111110 '
#750
0!
0)
#755
1!
1%
#760
0!
1)
b11101011001001110111000110111110 <
#765
1!
b1001000 s"
b10101011001000111000010001100001 >"
0%
b1001000 r"
b10100000011111110001010110111 &
b10000111010011010000000111101100 '
#770
0!
0)
#775
1!
1%
#780
0!
1*
1)
#785
1!
b1001001 s"
b1000010001010111111010010101101 >"
0%
b1001001 r"
b10010 &
b10100011101101110001110111010010 '
#790
0!
0)
0*
#795
1!
1%
#800
0!
1)
b10100011101101110001110111010010 =
#805
1!
b1001010 s"
b10101011001000111000010001110100 >"
0%
b1001010 r"
b1110010 &
b11001001001001100111111001110110 '
#810
0!
0)
#815
1!
1%
#820
0!
1)
b11001001001001100111111001110110 ?!
#825
1!
b1001011 s"
b1000010001010111111010011000001 >"
0%
b1001011 r"
b10011 &
b11001101111100100010101000010 '
#830
0!
0)
#835
1!
1%
#840
0!
1)
b11001101111100100010101000010 >
#845
1!
b1001100 s"
b10101011001000111000010010001000 >"
0%
b1001100 r"
b1011110 &
b101111110111010110100010101101 '
#850
0!
0)
#855
1!
1%
#860
0!
1)
b101111110111010110100010101101 +!
#865
1!
b1001101 s"
b1000010001010111111010011010110 >"
0%
b1001101 r"
b10100 &
b1110011110010100000110101111100 '
#870
0!
0)
#875
1!
1%
#880
0!
1)
b1110011110010100000110101111100 ?
#885
1!
b1001110 s"
b10101011001000111000010010011101 >"
0%
b1001110 r"
b101010 &
b11111010101110001001010100010010 '
#890
0!
0)
#895
1!
1%
#900
0!
1)
b11111010101110001001010100010010 U
#905
1!
b1001111 s"
b1000010001010111111010011101100 >"
0%
b1001111 r"
b10101 &
b10000100101111011101001011101110 '
#910
0!
0)
#915
1!
1%
#920
0!
1)
b10000100101111011101001011101110 @
#925
1!
b1010000 s"
b10101011001000111000010010110011 >"
0%
b1010000 r"
b111000 &
b1111000001110101100110100101111 '
#930
0!
0)
#935
1!
1%
#940
0!
1)
b1111000001110101100110100101111 c
#945
1!
b1010001 s"
b1000010001010111111010100000011 >"
0%
b1010001 r"
b10110 &
b1111000101100111100000100111001 '
#950
0!
0)
#955
1!
1%
#960
0!
1)
b1111000101100111100000100111001 A
#965
1!
b1010010 s"
b10101011001000111000010011001010 >"
0%
b1010010 r"
b110101 &
b11110110110000001100110011000101 '
#970
0!
0)
#975
1!
1%
#980
0!
1)
b11110110110000001100110011000101 `
#985
1!
b1010011 s"
b1000010001010111111010100011011 >"
0%
b1010011 r"
b10111 &
b110101100100010001110000011100 '
#990
0!
0)
#995
1!
1%
#1000
0!
1)
b110101100100010001110000011100 B
#1005
1!
b1010100 s"
b10101011001000111000010011100010 >"
0%
b1010100 r"
b10 &
b101111110000100110110011000100 '
#1010
0!
0)
#1015
1!
1%
#1020
0!
1)
b101111110000100110110011000100 -
#1025
1!
b1010101 s"
b1000010001010111111010100110100 >"
0%
b1010101 r"
b11000 &
b1011011011100010010100011101 '
#1030
0!
0)
#1035
1!
1%
#1040
0!
1)
b1011011011100010010100011101 C
#1045
1!
b1010110 s"
b10101011001000111000010011111011 >"
0%
b1010110 r"
b1000 &
b1000000101001110110101111100100 '
#1050
0!
0)
#1055
1!
1%
#1060
0!
1)
b1000000101001110110101111100100 3
#1065
1!
b1010111 s"
b1000010001010111111010101001110 >"
0%
b1010111 r"
b11001 &
b10000101001000100100111110110 '
#1070
0!
0)
#1075
1!
1%
#1080
0!
1)
b10000101001000100100111110110 D
#1085
1!
b1011000 s"
b10101011001000111000010100010101 >"
0%
b1011000 r"
b101111 &
b1001101001110011010011010010011 '
#1090
0!
0)
#1095
1!
1%
#1100
0!
1)
b1001101001110011010011010010011 Z
#1105
1!
b1011001 s"
b1000010001010111111010101101001 >"
0%
b1011001 r"
b11010 &
b1000101101101000000011111000100 '
#1110
0!
0)
#1115
1!
1%
#1120
0!
1)
b1000101101101000000011111000100 E
#1125
1!
b1011010 s"
b10101011001000111000010100110000 >"
0%
b1011010 r"
b111000 &
b11001000011110111110010010010110 '
#1130
0!
0)
#1135
1!
1%
#1140
0!
1)
b11001000011110111110010010010110 c
